{
   //开云广告
  "name": "city电影",
  "url": "https://www.citydy.com/",
  "User": "User-Agent:Dart/2.14 (dart:io)",
  "shouye": "1",
  "fenlei": "电影$/show/id-1/page/#电视剧$/show/id-2/page/#日剧$/show/id-2/area/日本/page/#泰剧$/show/id-2/area/泰国/page/#韩剧$/show/id-2/area/韩国/page/#美剧$/show/id-2/area/美国/page/#英剧$/show/id-2/area/英国/page/#综艺$/type/id-3-#动漫$/type/id-4-",
  "houzhui": ".html",
  "shifouercijiequ": "0",
  "jiequqian": "空",
  "jiequhou": "空",
  "jiequshuzuqian": "class=\"col-sm-6 col-xs-3 hide-actor",
  "jiequshuzuhou": "</span>",
  "tupianqian": "original=\"",
  "tupianhou": "\"",
  "biaotiqian": "alt=\"",
  "biaotihou": "\"",
  "lianjieqian": "href=\"",
  "lianjiehou": "\"",
  "sousuoqian": "/index.php/ajax/suggest?mid=1&wd=",
  "sousuohou": "&limit=500",
  "sousuohouzhui": "/detail/id-",
  "ssmoshi": "0",
  "sousuoshifouercijiequ": "0",
  "jspic": "pic",
  "jsname": "name",
  "jsid": "id",
  "ssjiequqian": "空",
  "ssjiequhou": "空",
  "ssjiequshuzuqian": "空",
  "ssjiequshuzuhou": "空",
  "sstupianqian": "空",
  "sstupianhou": "空",
  "ssbiaotiqian": "空",
  "ssbiaotihou": "空",
  "sslianjieqian": "空",
  "sslianjiehou": "空",
  "bfshifouercijiequ": "0",
  "bfjiequqian": "空",
  "bfjiequhou": "空",
  "bfjiequshuzuqian": "class=\"play-div-oa",
  "bfjiequshuzuhou": "</div>",
  "zhuangtaiqian": "状态：</span>",
  "zhuangtaihou": "</li>",
  "daoyanqian": "导演：</span>",
  "daoyanhou": "</li>",
  "zhuyanqian": "主演：</span>",
  "zhuyanhou": "</li>",
  "juqingqian": "简介：</span>",
  "juqinghou": "</p>",
  "bfyshifouercijiequ": "0",
  "bfyjiequqian": "空",
  "bfyjiequhou": "空",
  "bfyjiequshuzuqian": "<a",
  "bfyjiequshuzuhou": "/a>",
  "bfbiaotiqian": ">",
  "bfbiaotihou": "<",
  "bflianjieqian": "href=\"",
  "bflianjiehou": "\""
}
